…
# Create the tuning grid
tunegrid_boost <- grid_regular(parameters(boost_spec), 
                               levels = 5)
```

    ## Warning: `parameters.model_spec()` was deprecated in tune 0.1.6.9003.
    ## ℹ Please use `hardhat::extract_parameter_set_dials()` instead.

``` r
tunegrid_boost
```

    ## # A tibble: 25 × 2
    ##    tree_depth learn_rate
    ##         <int>      <dbl>
    ##  1          1    0.001  
    ##  2          4    0.001  
    ##  3          8    0.001  
    ##  4         11    0.001  
    ##  5         15    0.001  
    ##  6          1    0.00422
    ##  7          4    0.00422
    ##  8          8    0.00422
    ##  9         11    0.00422
    ## 10         15    0.00422
    ## # … with 15 more rows
…
h1 = vip::vi_model(final_model1)
h1 = h1 %>% 
  mutate(model = c(1,1,1,1,1,1,1))
h2 = vip::vi_model(final_model2)
h2 = h2 %>% 
  mutate(model = c(2,2,2,2,2,2,2))
h3 = vip::vi_model(final_model3)
h3 = h3 %>% 
  mutate(model = c(3,3,3,3,3,3,3))
h = rbind(h1,h2,h3)
colnames(h) = c("Variable", "Importance", "Model")
h
```

    ## # A tibble: 21 × 3
    ##    Variable                Importance Model
    ##    <chr>                        <dbl> <dbl>
    ##  1 number_of_tweets            0.457      1
    ##  2 polarity_news               0.231      1
    ##  3 google_trends               0.100      1
    ##  4 yoy_revenue_growth          0.0653     1
    ##  5 number_of_likes_twitter     0.0588     1
    ##  6 polarity_twitter            0.0483     1
    ##  7 number_of_news              0.0398     1
    ##  8 number_of_tweets            0.467      2
    ##  9 polarity_news               0.320      2
    ## 10 number_of_likes_twitter     0.0611     2
    ## # … with 11 more rows
…
